<?xml version="1.0" encoding="UTF-8"?>
<graphml xmlns="http://graphml.graphdrawing.org/xmlns/graphml"
xmlns:xsi="http://www.w3.org/2001/XMLSchema-instance"  
xsi:schemaLocation="http://graphml.graphdrawing.org/xmlns/graphml">
<key id="programfile" attr.name="programfile" for="graph"/>
<key id="programhash" attr.name="programhash" for="graph"/>
<key id="sourcecodelang" attr.name="sourcecodelang" for="graph"/>
<key id="producer" attr.name="producer" for="graph"/>
<key id="specification" attr.name="specification" for="graph"/>
<key id="creationtime" attr.name="creationtime" for="graph"/>
<key id="witness-type" attr.name="witness-type" for="graph"/>
<key id="architecture" attr.name="architecture" for="graph"/>
<key id="entry" attr.name="entry" for="node">
<default>false</default>
</key>
<key id="nodetype" attr.name="nodetype" for="node">
<default>path</default>
</key>
<key id="violation" attr.name="violation" for="node">
<default>false</default>
</key>
<key id="invariant" attr.name="invariant" for="node">
<default>true</default>
</key>
<key id="endline" attr.name="endline" for="edge"/>
<key id="enterLoopHead" attr.name="enterLoopHead" for="edge">
<default>false</default>
</key>
<key id="enterFunction" attr.name="enterFunction" for="edge"/>
<key id="startline" attr.name="startline" for="edge"/>
<key id="returnFrom" attr.name="returnFrom" for="edge"/>
<key id="assumption" attr.name="assumption" for="edge"/>
<key id="tokens" attr.name="tokens" for="edge"/>
<key id="control" attr.name="control" for="edge"/>
<key id="originfile" attr.name="originfile" for="edge">
<default>/home/mgerrard/work/cfc/examples/arrays.c</default>
</key>
<key id="sourcecode" attr.name="sourcecode" for="edge"/>
<graph edgedefault="directed">
<data key="programfile">/home/mgerrard/work/cfc/examples/arrays.c</data>
<data key="programhash">dafca18427b23c9c05e52b51e22563ce78501a56</data>
<data key="sourcecodelang">C</data>
<data key="producer">Automizer</data>
<data key="specification">CHECK( init(main()), LTL(G ! call(__VERIFIER_error())) )
</data>
<data key="creationtime">2017-03-30T19:24Z</data>
<data key="witness-type">correctness_witness</data>
<data key="architecture">32bit</data>
<node id="N0">
<data key="entry">true</data>
</node>
<node id="N1"/>
<node id="N2"/>
<node id="N3"/>
<node id="N4"/>
<node id="N5"/>
<node id="N6"/>
<node id="N7"/>
<node id="N8"/>
<node id="N9"/>
<node id="N10"/>
<edge id="E0" source="N0" target="N1">
<data key="endline">5</data>
<data key="startline">5</data>
<data key="sourcecode">int a[5] = { 0 };</data>
</edge>
<edge id="E1" source="N1" target="N2">
<data key="endline">6</data>
<data key="startline">6</data>
<data key="sourcecode">__VERIFIER_nondet_int()</data>
</edge>
<edge id="E2" source="N2" target="N3">
<data key="endline">6</data>
<data key="startline">6</data>
<data key="sourcecode">int x = __VERIFIER_nondet_int();</data>
</edge>
<edge id="E3" source="N3" target="N4">
<data key="endline">6</data>
<data key="startline">6</data>
<data key="sourcecode">__VERIFIER_nondet_int()</data>
</edge>
<edge id="E4" source="N4" target="N5">
<data key="endline">7</data>
<data key="startline">7</data>
<data key="sourcecode">a[0] = x</data>
</edge>
<edge id="E5" source="N5" target="N6">
<data key="endline">8</data>
<data key="startline">8</data>
<data key="sourcecode">a[2] = a[0]</data>
</edge>
<edge id="E6" source="N6" target="N7">
<data key="endline">9</data>
<data key="startline">9</data>
<data key="sourcecode">a[0] = a[4]</data>
</edge>
<edge id="E7" source="N7" target="N8">
<data key="endline">11</data>
<data key="startline">11</data>
<data key="control">condition-true</data>
<data key="sourcecode">[a[0] &gt; 0]</data>
</edge>
<edge id="E8" source="N7" target="N9">
<data key="endline">11</data>
<data key="startline">11</data>
<data key="control">condition-false</data>
<data key="sourcecode">[!(a[0] &gt; 0)]</data>
</edge>
<edge id="E9" source="N8" target="N10">
<data key="endline">12</data>
<data key="startline">12</data>
<data key="sourcecode">__VERIFIER_error()</data>
</edge>
<edge id="E10" source="N8" target="N9">
<data key="endline">12</data>
<data key="startline">12</data>
<data key="sourcecode">__VERIFIER_error()</data>
</edge>
</graph>
</graphml>
