extern void __VERIFIER_error() __attribute__ ((__noreturn__));
void __VERIFIER_assert(int cond) {
  if (!(cond != 0)) {
    ERROR: __VERIFIER_error();
  }
  return;
}
int main(void) {
  unsigned int x;
  while (x < 0x0fffffff) {
    x++;
  }
  if (!(x > 0x0fffffff)) {
  __VERIFIER_error();
}
}
