extern void __VERIFIER_error() __attribute__ ((__noreturn__));

extern void __VERIFIER_assume(int);
void __VERIFIER_assert(int cond) {
  if (!(cond != 0)) {
    ERROR: __VERIFIER_error();
  }
  return;
}

int __VERIFIER_nondet_int();

int main() {
  int i=0, x=0, y=0;
  int n=__VERIFIER_nondet_int();
  if (!(n>0)) 
    return 0;
  for(i=0; i<n; i++)
  {
    x = x-y;
    if (!(x==0)) {
  __VERIFIER_error();
}
    y = __VERIFIER_nondet_int();
    if (!(y!=0)) 
      return 0;
    x = x+y;
    if (!(x!=0)) {
  __VERIFIER_error();
}
  }
  if (!(x==0)) {
  __VERIFIER_error();
}
}
