extern void __VERIFIER_error() __attribute__ ((__noreturn__));

void __VERIFIER_assert(int cond) {
  if (!(cond != 0)) {
    ERROR: __VERIFIER_error();
  }
  return;
}
typedef int Char;


Char *tmp;

int glob2 (Char *pathbuf, Char *pathlim)
{
  Char *p;

  for (p = pathbuf; p <= pathlim; p++) {

    if (!(p<=tmp)) {
  __VERIFIER_error();
}
    *p = 1;
  }

  return 0;
}

int main ()
{
  Char pathbuf[1 +1];

  Char *bound = pathbuf + sizeof(pathbuf) - 1;

  tmp = pathbuf + sizeof(pathbuf)/sizeof(*pathbuf) - 1;

  glob2 (pathbuf, bound);

  return 0;
}
